// Jest Snapshot v1, https://goo.gl/fbAQLP

exports[`ForgotYourPasswordLink should work 1`] = `<div><a href="https://authenticator.production.crossref.org/reset-password/#unit-test" class="text-uppercase text-decoration-none">Forgotten your password?</a></div>`;
