// Jest Snapshot v1, https://goo.gl/fbAQLP

exports[`LoginBox.vue should work 1`] = `
<div data-cy="login-box">
  <keep-alive-stub>
    <loginboxstepauthenticate-stub></loginboxstepauthenticate-stub>
  </keep-alive-stub>
  <!---->
  <!---->
  <!---->
</div>
`;
